<svg width="16" height="16" viewBox="0 0 16 16" fill="none" xmlns="http://www.w3.org/2000/svg">
<path d="M2 6.224C2 6.11354 2.08954 6.024 2.2 6.024H9.776C9.88646 6.024 9.976 6.11354 9.976 6.224V13.8C9.976 13.9105 9.88646 14 9.776 14H2.2C2.08954 14 2 13.9105 2 13.8V6.224Z" fill="white" stroke="#F87C96"/>
<path d="M7.68667 1.33333H14.6667V8.52L12.5693 10.5827L10.8227 8.836L7.4734 12.184C7.31723 12.3402 7.06408 12.3402 6.90788 12.1841L3.88715 9.16561C3.73081 9.00938 3.7308 8.75595 3.88715 8.59972L7.35067 5.13867L5.6 3.392L7.68667 1.33333Z" fill="#F87C96"/>
<path d="M13.3267 2.672L13.356 9.18533L10.9333 6.76L7.09333 10.6L5.45333 8.964L9.296 5.124L6.82933 2.65467L13.3267 2.672Z" fill="white"/>
</svg>
