{
	"name": "Ruby",
	"dockerFile": "Dockerfile",
	"appPort": 1989,
	"extensions": [
		"shd101wyy.markdown-preview-enhanced"
	],
	"runArgs": [
		"--cap-add=SYS_PTRACE",
		"--security-opt",
		"seccomp=unconfined"
	]
}